<?xml version="1.0"?>
<!--
Software License Agreement (BSD)

\file      husky.urdf.xacro
\authors   Paul Bovbel <pbovbel@clearpathrobotics.com>, Devon Ash <dash@clearpathrobotics.com>
\copyright Copyright (c) 2015, Clearpath Robotics, Inc., All rights reserved.

Redistribution and use in source and binary forms, with or without modification, are permitted provided that
the following conditions are met:
 * Redistributions of source code must retain the above copyright notice, this list of conditions and the
   following disclaimer.
 * Redistributions in binary form must reproduce the above copyright notice, this list of conditions and the
   following disclaimer in the documentation and/or other materials provided with the distribution.
 * Neither the name of Clearpath Robotics nor the names of its contributors may be used to endorse or promote
   products derived from this software without specific prior written permission.

THIS SOFTWARE IS PROVIDED BY THE COPYRIGHT HOLDERS AND CONTRIBUTORS "AS IS" AND ANY EXPRESS OR IMPLIED WAR-
RANTIES, INCLUDING, BUT NOT LIMITED TO, THE IMPLIED WARRANTIES OF MERCHANTABILITY AND FITNESS FOR A PARTICULAR
PURPOSE ARE DISCLAIMED. IN NO EVENT SHALL THE COPYRIGHT HOLDER OR CONTRIBUTORS BE LIABLE FOR ANY DIRECT, IN-
DIRECT, INCIDENTAL, SPECIAL, EXEMPLARY, OR CONSEQUENTIAL DAMAGES (INCLUDING, BUT NOT LIMITED TO, PROCUREMENT
OF SUBSTITUTE GOODS OR SERVICES; LOSS OF USE, DATA, OR PROFITS; OR BUSINESS INTERRUPTION) HOWEVER CAUSED AND
ON ANY THEORY OF LIABILITY, WHETHER IN CONTRACT, STRICT LIABILITY, OR TORT (INCLUDING NEGLIGENCE OR OTHERWISE)
ARISING IN ANY WAY OUT OF THE USE OF THIS SOFTWARE, EVEN IF ADVISED OF THE POSSIBILITY OF SUCH DAMAGE.
-->
<robot name="husky_robot" xmlns:xacro="http://ros.org/wiki/xacro">

  <!-- Included URDF/XACRO Files -->
  <xacro:include filename="$(find husky_description)/urdf/decorations.urdf.xacro" />
  <xacro:include filename="$(find husky_description)/urdf/wheel.urdf.xacro" />

  <xacro:include filename="$(find husky_description)/urdf/accessories/kinect_camera.urdf.xacro"/>
  <xacro:include filename="$(find husky_description)/urdf/accessories/sick_lms1xx_mount.urdf.xacro"/>
  <xacro:include filename="$(find husky_description)/urdf/accessories/sensor_arch.urdf.xacro"/>
  <xacro:include filename="$(find ur_description)/urdf/ur5.urdf.xacro" />
  <xacro:include filename="$(find husky_description)/urdf/accessories/gripper.urdf.xacro"/>

  <property name="M_PI" value="3.14159"/>

  <!-- Base Size -->
  <property name="base_x_size" value="0.98740000" />
  <property name="base_y_size" value="0.57090000" />
  <property name="base_z_size" value="0.24750000" />

  <!-- Wheel Mounting Positions -->
  <xacro:property name="wheelbase" value="0.5120" />
  <xacro:property name="track" value="0.5708" />
  <xacro:property name="wheel_vertical_offset" value="0.03282" />

  <!-- Wheel Properties -->
  <xacro:property name="wheel_length" value="0.1143" />
  <xacro:property name="wheel_radius" value="0.17775" />

  <xacro:macro name="husky_robot">

    <!-- Base link is the center of the robot's bottom plate -->
    <link name="base_link">
      <visual>
        <origin xyz="0 0 0" rpy="0 0 0" />
        <geometry>
          <mesh filename="package://husky_description/meshes/base_link.dae" />
        </geometry>
        <material name="LightGrey">
          <color rgba="0.6 0.6 0.6 1.0"/>
        </material>
      </visual>
      <collision>
        <origin xyz="0 0 ${base_z_size/4}" rpy="0 0 0" />
        <geometry>
          <box size="${base_x_size} ${base_y_size} ${base_z_size/2}"/>
        </geometry>
      </collision>
      <collision>
        <origin xyz="0 0 ${base_z_size*3/4}" rpy="0 0 0" />
        <geometry>
          <box size="${base_x_size*4/5} ${base_y_size} ${base_z_size/2}"/>
        </geometry>
      </collision>
    </link>

    <!-- Base footprint is on the ground under the robot -->
    <link name="base_footprint"/>

    <joint name="base_footprint_joint" type="fixed">
      <origin xyz="0 0 ${wheel_vertical_offset - wheel_radius}" rpy="0 0 0" />
      <parent link="base_link" />
      <child link="base_footprint" />
    </joint>

    <!-- Interial link stores the robot's inertial information -->
    <link name="inertial_link">
      <inertial>
        <mass value="33.455" />
        <origin xyz="-0.08748 -0.00085 0.09947" />
        <inertia ixx="0.6022" ixy="-0.02364" ixz="-0.1197" iyy="1.7386" iyz="-0.001544" izz="2.0296" />
      </inertial>
    </link>

    <joint name="inertial_joint" type="fixed">
      <origin xyz="0 0 0" rpy="0 0 0" />
      <parent link="base_link" />
      <child link="inertial_link" />
    </joint>

    <!-- IMU Link is the standard mounting position for the UM6 IMU.-->
    <!-- Can be modified with environment variables in /etc/ros/setup.bash -->
    <link name="imu_link"/>
    <joint name="imu_joint" type="fixed">
      <origin xyz="$(optenv HUSKY_IMU_XYZ 0.19 0 0.149)" rpy="$(optenv HUSKY_IMU_RPY 0 -1.5708 3.1416)" />
      <parent link="base_link" />
      <child link="imu_link" />
    </joint>
    <gazebo reference="imu_link">
    </gazebo>

    <!-- Husky wheel macros -->
    <xacro:husky_wheel wheel_prefix="front_left">
      <origin xyz="${wheelbase/2} ${track/2} ${wheel_vertical_offset}" rpy="0 0 0" />
    </xacro:husky_wheel>
    <xacro:husky_wheel wheel_prefix="front_right">
      <origin xyz="${wheelbase/2} ${-track/2} ${wheel_vertical_offset}" rpy="0 0 0" />
    </xacro:husky_wheel>
    <xacro:husky_wheel wheel_prefix="rear_left">
      <origin xyz="${-wheelbase/2} ${track/2} ${wheel_vertical_offset}" rpy="0 0 0" />
    </xacro:husky_wheel>
    <xacro:husky_wheel wheel_prefix="rear_right">
      <origin xyz="${-wheelbase/2} ${-track/2} ${wheel_vertical_offset}" rpy="0 0 0" />
    </xacro:husky_wheel>

    <xacro:husky_decorate />

    <xacro:if value="$(arg ur5_enabled)">

      <xacro:property name="reflect" value="-1" />

      <!-- Spawn arm -->
      <xacro:ur5_robot prefix="ur5_arm_" joint_limited="true"/>

      <!-- Join arm -->
      <joint name="ur5_arm_base" type="fixed">
        <parent link="top_plate_link" />
        <child link="ur5_arm_base_link" />
        <origin xyz="0.3058 0 0.0065" rpy="0.0 0.0 -1.57" />
      </joint>

      <xacro:if value="$(arg gripper_enabled)">
        <!-- Spawn gripper -->
        <xacro:pr2_gripper_simple_transmission />
      </xacro:if>

    </xacro:if>

    <xacro:if value="$(arg laser_enabled)">

      <sick_lms1xx_mount prefix="base" topic="scan"/>

      <joint name="laser_mount_joint" type="fixed">
        <origin xyz="$(optenv HUSKY_LMS1XX_XYZ 0.2206 0.0 0.00635)"
                rpy="$(optenv HUSKY_LMS1XX_RPY 0.0 0.0 0.0)" />
        <parent link="top_plate_link" />
        <child link="base_laser_mount" />
      </joint>

    </xacro:if>

    <xacro:if value="$(arg kinect_enabled)">

      <xacro:sensor_arch prefix="" parent="top_plate_link">
        <origin xyz="-0.35 0 0.51" rpy="0 0 -3.14"/>
      </xacro:sensor_arch>
      <joint name="kinect_frame_joint" type="fixed">
        <origin xyz="$(optenv HUSKY_KINECT_XYZ 0 0 0)" rpy="$(optenv HUSKY_KINECT_RPY 0 0.18 3.14)" />
        <parent link="sensor_arch_mount_link"/>
        <child link="camera_link"/>
      </joint>

      <xacro:kinect_camera prefix="camera"/>
    </xacro:if>

  </xacro:macro>

</robot>
